# Name,Type,SubType,Offset,Size,Flags
nvs,data,nvs,0x9000,0x4000,
otadata ,data,ota,0xd000,0x2000,
phy_init ,data,phy,0xf000,0x1000,
factory ,app,factory,0x10000,3M,
ota_0 ,app,ota_0,,3M,
config,data,nvs,0x7B0000,0x10000,
nvs_key ,data ,nvs_keys,,0x1000,